…
导入词汇表。

```r
df = read_csv('~/WordFreq/COCA_top5000.csv') 
df1 = select(df, Word) # 选择 word 这一列
```

2000 词以后的很多词我就不认识了，这里我选 前 1000 词，为了复习

```r
df1 = df1[0:1000,] 

df2 = read_csv('~/WordFreq/MathLinearBookFreq.csv')
df2
#> # A tibble: 2,086 x 2
#>    Frequency   Word
#>        <int>  <chr>
#> 1      10066    the
#> 2       9994      a
#> 3       5411     be
#> 4       4030    and
#> 5       2817     to
#> 6       2370     in
#> 7       2173 matrix
#> 8       1801    are
#> 9       1497     by
#> 10      1451    row
#> # ... with 2,076 more rows
```

采用 dplyr 里的anti_join 函数把 df2 里面不匹配 df1 的单词挑出来，大白话就是把你不怎么认识的词挑出来

```r
df3 = anti_join(df2, df1, by = 'Word') %>%
  arrange(desc(Frequency))
df3
#> # A tibble: 1,438 x 2
#>    Frequency     Word
#>        <int>    <chr>
#> 1       2173   matrix
#> 2       1801      are
#> 3       1451      row
#> 4       1207   column
#> 5       1128   vector
#> 6        659 solution
#> 7        589 equation
#> 8        577     zero
#> 9        547      ion
#> 10       485    pivot
#> # ... with 1,428 more rows
…
但还有个问题，数学书里面有太两位数的符号，属于无效单词，也可删除

```r
df4 <- filter(df3, nchar(Word) > 2)
summary(df4)
#>    Frequency           Word          
#>  Min.   :   1.00   Length:1399       
#>  1st Qu.:   1.00   Class :character  
#>  Median :   3.00   Mode  :character  
#>  Mean   :  20.58                     
#>  3rd Qu.:   8.00                     
#>  Max.   :2173.00
df4
#> # A tibble: 1,399 x 2
#>    Frequency     Word
#>        <int>    <chr>
#> 1       2173   matrix
#> 2       1801      are
#> 3       1451      row
#> 4       1207   column
#> 5       1128   vector
#> 6        659 solution
#> 7        589 equation
#> 8        577     zero
#> 9        547      ion
#> 10       485    pivot
#> # ... with 1,389 more rows
```
…
